R-workshop
…
Categorical, numerical, boolean, character

Exploration

# Import data set
bio_df <- readxl::read_xlsx('data/SSMI Data Sheet Spray Trial 1.xlsx')

# Taking a quick look at our data is easy
bio_df
View(bio_df)

Exploration

## # A tibble: 320 x 10
##    Population Cage_Number Treatment   Day Mating_status Sex   Death
##    <chr>            <dbl> <chr>     <dbl> <chr>         <chr> <dbl>
##  1 H3                  1. Control      2. Virgin        F        0.
##  2 H3                  1. Control      3. Virgin        F        0.
##  3 H3                  1. Control      4. Virgin        F        0.
##  4 H3                  1. Control      5. Virgin        F        0.
##  5 H3                  1. Control      6. Virgin        F        0.
##  6 H3                  1. Control      7. Virgin        F        0.
##  7 H3                  1. Control      8. Virgin        F        0.
##  8 H3                  1. Control      9. Virgin        F        0.
##  9 H3                  1. Control     10. Virgin        F        0.
## 10 H3                  1. Control     11. Virgin        F        0.
## # ... with 310 more rows, and 3 more variables: Survival <dbl>,
## #   Percent_survival <dbl>, Eggs <chr>
…
Filtering

# Filtering 
bio_df %>% 
  filter(Sex == "F")

## # A tibble: 160 x 10
##    Population Cage_Number Treatment   Day Mating_status Sex   Death
##    <chr>            <dbl> <chr>     <dbl> <chr>         <chr> <dbl>
##  1 H3                  1. Control      2. Virgin        F        0.
##  2 H3                  1. Control      3. Virgin        F        0.
##  3 H3                  1. Control      4. Virgin        F        0.
##  4 H3                  1. Control      5. Virgin        F        0.
##  5 H3                  1. Control      6. Virgin        F        0.
##  6 H3                  1. Control      7. Virgin        F        0.
##  7 H3                  1. Control      8. Virgin        F        0.
##  8 H3                  1. Control      9. Virgin        F        0.
##  9 H3                  1. Control     10. Virgin        F        0.
## 10 H3                  1. Control     11. Virgin        F        0.
## # ... with 150 more rows, and 3 more variables: Survival <dbl>,
## #   Percent_survival <dbl>, Eggs <chr>
…
